…
### `flights` data frame

We'll begin by exploring the `flights` data frame and get an idea of its structure. Run the following code in your console, either by typing it or by cutting-and-pasting it. It displays the contents of the `flights` data frame in your console. Note that depending on the size of your monitor, the output may vary slightly. 


```r
flights
```

```
# A tibble: 336,776 x 19
    year month   day dep_time sched_dep_time dep_delay arr_time
   <int> <int> <int>    <int>          <int>     <dbl>    <int>
 1  2013     1     1      517            515         2      830
 2  2013     1     1      533            529         4      850
 3  2013     1     1      542            540         2      923
 4  2013     1     1      544            545        -1     1004
 5  2013     1     1      554            600        -6      812
 6  2013     1     1      554            558        -4      740
 7  2013     1     1      555            600        -5      913
 8  2013     1     1      557            600        -3      709
 9  2013     1     1      557            600        -3      838
10  2013     1     1      558            600        -2      753
# ... with 336,766 more rows, and 12 more variables: sched_arr_time <int>,
#   arr_delay <dbl>, carrier <chr>, flight <int>, tailnum <chr>,
#   origin <chr>, dest <chr>, air_time <dbl>, distance <dbl>, hour <dbl>,
#   minute <dbl>, time_hour <dttm>
```
…
This code is identical to the previous code that created `summary_temp`, but with an extra `group_by(month)` added before the `summarize()`. Grouping the `weather` dataset by `month` and then applying the `summarize()` functions yields a data frame that displays the mean and standard deviation temperature split by the 12 months of the year.

It is important to note that the \index{dplyr!group\_by()} `group_by()` function doesn't change data frames by itself. Rather it changes the *meta-data*\index{meta-data}, or data about the data, specifically the grouping structure. It is only after we apply the `summarize()` function that the data frame changes. 

For example, let's consider the \index{ggplot2!diamonds} `diamonds` data frame included in the `ggplot2` package. Run this code:


```r
diamonds
```

```
# A tibble: 53,940 x 10
   carat cut       color clarity depth table price     x     y     z
   <dbl> <ord>     <ord> <ord>   <dbl> <dbl> <int> <dbl> <dbl> <dbl>
 1 0.23  Ideal     E     SI2      61.5    55   326  3.95  3.98  2.43
 2 0.21  Premium   E     SI1      59.8    61   326  3.89  3.84  2.31
 3 0.23  Good      E     VS1      56.9    65   327  4.05  4.07  2.31
 4 0.290 Premium   I     VS2      62.4    58   334  4.2   4.23  2.63
 5 0.31  Good      J     SI2      63.3    58   335  4.34  4.35  2.75
 6 0.24  Very Good J     VVS2     62.8    57   336  3.94  3.96  2.48
 7 0.24  Very Good I     VVS1     62.3    57   336  3.95  3.98  2.47
 8 0.26  Very Good H     SI1      61.9    55   337  4.07  4.11  2.53
 9 0.22  Fair      E     VS2      65.1    61   337  3.87  3.78  2.49
10 0.23  Very Good H     VS1      59.4    61   338  4     4.05  2.39
# ... with 53,930 more rows
```

Observe that the first line of the output reads ``# A tibble: 53,940 x 10 ``. This is an example of meta-data, in this case the number of observations/rows and variables/columns in `diamonds`. The actual data itself are the subsequent table of values. Now let's pipe the `diamonds` data frame into `group_by(cut)`:


```r
diamonds %>% 
  group_by(cut)
```

```
# A tibble: 53,940 x 10
# Groups:   cut [5]
   carat cut       color clarity depth table price     x     y     z
   <dbl> <ord>     <ord> <ord>   <dbl> <dbl> <int> <dbl> <dbl> <dbl>
 1 0.23  Ideal     E     SI2      61.5    55   326  3.95  3.98  2.43
 2 0.21  Premium   E     SI1      59.8    61   326  3.89  3.84  2.31
 3 0.23  Good      E     VS1      56.9    65   327  4.05  4.07  2.31
 4 0.290 Premium   I     VS2      62.4    58   334  4.2   4.23  2.63
 5 0.31  Good      J     SI2      63.3    58   335  4.34  4.35  2.75
 6 0.24  Very Good J     VVS2     62.8    57   336  3.94  3.96  2.48
 7 0.24  Very Good I     VVS1     62.3    57   336  3.95  3.98  2.47
 8 0.26  Very Good H     SI1      61.9    55   337  4.07  4.11  2.53
 9 0.22  Fair      E     VS2      65.1    61   337  3.87  3.78  2.49
10 0.23  Very Good H     VS1      59.4    61   338  4     4.05  2.39
# ... with 53,930 more rows
```
…
If you would like to remove this grouping structure meta-data, we can pipe the resulting data frame into the \index{dplyr!ungroup()} `ungroup()` function:


```r
diamonds %>% 
  group_by(cut) %>% 
  ungroup()
```

```
# A tibble: 53,940 x 10
   carat cut       color clarity depth table price     x     y     z
   <dbl> <ord>     <ord> <ord>   <dbl> <dbl> <int> <dbl> <dbl> <dbl>
 1 0.23  Ideal     E     SI2      61.5    55   326  3.95  3.98  2.43
 2 0.21  Premium   E     SI1      59.8    61   326  3.89  3.84  2.31
 3 0.23  Good      E     VS1      56.9    65   327  4.05  4.07  2.31
 4 0.290 Premium   I     VS2      62.4    58   334  4.2   4.23  2.63
 5 0.31  Good      J     SI2      63.3    58   335  4.34  4.35  2.75
 6 0.24  Very Good J     VVS2     62.8    57   336  3.94  3.96  2.48
 7 0.24  Very Good I     VVS1     62.3    57   336  3.95  3.98  2.47
 8 0.26  Very Good H     SI1      61.9    55   337  4.07  4.11  2.53
 9 0.22  Fair      E     VS2      65.1    61   337  3.87  3.78  2.49
10 0.23  Very Good H     VS1      59.4    61   338  4     4.05  2.39
# ... with 53,930 more rows
```
…
### Grouping by more than one variable

You are not limited to grouping by one variable. Say you want to know the number of flights leaving each of the three New York City airports *for each month*. We can also group by a second variable `month` using `group_by(origin, month)`:


```r
by_origin_monthly <- flights %>% 
  group_by(origin, month) %>% 
  summarize(count = n())
by_origin_monthly
```

```
# A tibble: 36 x 3
# Groups:   origin [3]
   origin month count
   <chr>  <int> <int>
 1 EWR        1  9893
 2 EWR        2  9107
 3 EWR        3 10420
 4 EWR        4 10531
 5 EWR        5 10592
 6 EWR        6 10175
 7 EWR        7 10475
 8 EWR        8 10359
 9 EWR        9  9550
10 EWR       10 10104
# ... with 26 more rows
```
…
One of the most commonly performed data wrangling tasks is to sort a data frame's rows in the alphanumeric order of one of the variables. The `dplyr` package's `arrange()` function \index{dplyr!arrange()} allows us to sort/reorder a data frame's rows according to the values of the specified variable.

Suppose we are interested in determining the most frequent destination airports for all domestic flights departing from New York City in 2013:


```r
freq_dest <- flights %>% 
  group_by(dest) %>% 
  summarize(num_flights = n())
freq_dest
```

```
# A tibble: 105 x 2
   dest  num_flights
   <chr>       <int>
 1 ABQ           254
 2 ACK           265
 3 ALB           439
 4 ANC             8
 5 ATL         17215
 6 AUS          2439
 7 AVL           275
 8 BDL           443
 9 BGR           375
10 BHM           297
# ... with 95 more rows
```

Observe that by default the rows of the resulting `freq_dest` data frame are sorted in alphabetical order of `dest`ination. Say instead we would like to see the same data, but sorted from the most to the least number of flights (`num_flights`) instead:


```r
freq_dest %>% 
  arrange(num_flights)
```

```
# A tibble: 105 x 2
   dest  num_flights
   <chr>       <int>
 1 LEX             1
 2 LGA             1
 3 ANC             8
 4 SBN            10
 5 HDN            15
 6 MTJ            15
 7 EYW            17
 8 PSP            19
 9 JAC            25
10 BZN            36
# ... with 95 more rows
```

This is, however, the opposite of what we want. The rows are sorted with the least frequent destination airports displayed first. This is because `arrange()` always returns rows sorted in ascending order by default. To switch the ordering to be in "descending" order instead, we use the `desc()` \index{dplyr!desc()} function as so:


```r
freq_dest %>% 
  arrange(desc(num_flights))
```

```
# A tibble: 105 x 2
   dest  num_flights
   <chr>       <int>
 1 ORD         17283
 2 ATL         17215
 3 LAX         16174
 4 BOS         15508
 5 MCO         14082
 6 CLT         14064
 7 SFO         13331
 8 FLL         12055
 9 MIA         11728
10 DCA          9705
# ... with 95 more rows
```
…
Let's construct the chain of pipe operators `%>%` that computes the number of flights from NYC to each destination, but also includes information about each destination airport:


```r
named_dests <- flights %>%
  group_by(dest) %>%
  summarize(num_flights = n()) %>%
  arrange(desc(num_flights)) %>%
  inner_join(airports, by = c("dest" = "faa")) %>%
  rename(airport_name = name)
named_dests
```

```
# A tibble: 101 x 9
   dest  num_flights airport_name       lat    lon   alt    tz dst   tzone 
   <chr>       <int> <chr>            <dbl>  <dbl> <dbl> <dbl> <chr> <chr> 
 1 ORD         17283 Chicago Ohare I~  42.0  -87.9   668    -6 A     Ameri~
 2 ATL         17215 Hartsfield Jack~  33.6  -84.4  1026    -5 A     Ameri~
 3 LAX         16174 Los Angeles Intl  33.9 -118.    126    -8 A     Ameri~
 4 BOS         15508 General Edward ~  42.4  -71.0    19    -5 A     Ameri~
 5 MCO         14082 Orlando Intl      28.4  -81.3    96    -5 A     Ameri~
 6 CLT         14064 Charlotte Dougl~  35.2  -80.9   748    -5 A     Ameri~
 7 SFO         13331 San Francisco I~  37.6 -122.     13    -8 A     Ameri~
 8 FLL         12055 Fort Lauderdale~  26.1  -80.2     9    -5 A     Ameri~
 9 MIA         11728 Miami Intl        25.8  -80.3     8    -5 A     Ameri~
10 DCA          9705 Ronald Reagan W~  38.9  -77.0    15    -5 A     Ameri~
# ... with 91 more rows
```
…
### Using the console

First, let's import a Comma Separated Values `.csv` file that exists on the internet. The `.csv` file `dem_score.csv` contains ratings of the level of democracy in different countries spanning 1952 to 1992 and is accessible at <https://moderndive.com/data/dem_score.csv>. Let's use the `read_csv()` function from the `readr` \index{R packages!readr!read\_csv()} [@R-readr] package to read it off the web, import it into R, and save it in a data frame called `dem_score`.


```r
library(readr)
dem_score <- read_csv("https://moderndive.com/data/dem_score.csv")
dem_score
```

```
# A tibble: 96 x 10
   country   `1952` `1957` `1962` `1967` `1972` `1977` `1982` `1987` `1992`
   <chr>      <dbl>  <dbl>  <dbl>  <dbl>  <dbl>  <dbl>  <dbl>  <dbl>  <dbl>
 1 Albania       -9     -9     -9     -9     -9     -9     -9     -9      5
 2 Argentina     -9     -1     -1     -9     -9     -9     -8      8      7
 3 Armenia       -9     -7     -7     -7     -7     -7     -7     -7      7
 4 Australia     10     10     10     10     10     10     10     10     10
 5 Austria       10     10     10     10     10     10     10     10     10
 6 Azerbaij~     -9     -7     -7     -7     -7     -7     -7     -7      1
 7 Belarus       -9     -7     -7     -7     -7     -7     -7     -7      7
 8 Belgium       10     10     10     10     10     10     10     10     10
 9 Bhutan       -10    -10    -10    -10    -10    -10    -10    -10    -10
10 Bolivia       -4     -3     -3     -4     -7     -7      8      9      9
# ... with 86 more rows
```
…
```r
airline_safety
```

After reading the help file by running `?airline_safety`, we see that `airline_safety` is a data frame containing information on different airline companies' safety records. This data was originally reported on the data journalism website, FiveThirtyEight.com, in Nate Silver's article, ["Should Travelers Avoid Flying Airlines That Have Had Crashes in the Past?"](https://fivethirtyeight.com/features/should-travelers-avoid-flying-airlines-that-have-had-crashes-in-the-past/). Let's only consider the variables `airlines` and those relating to fatalities for simplicity:


```r
airline_safety_smaller <- airline_safety %>% 
  select(airline, starts_with("fatalities"))
airline_safety_smaller
```

```
# A tibble: 56 x 3
   airline               fatalities_85_99 fatalities_00_14
   <chr>                            <int>            <int>
 1 Aer Lingus                           0                0
 2 Aeroflot                           128               88
 3 Aerolineas Argentinas                0                0
 4 Aeromexico                          64                0
 5 Air Canada                           0                0
 6 Air France                          79              337
 7 Air India                          329              158
 8 Air New Zealand                      0                7
 9 Alaska Airlines                      0               88
10 Alitalia                            50                0
# ... with 46 more rows
```
…
Let's use our data wrangling tools from Chapter \@ref(wrangling) to compute the sum of squared residuals exactly:


```r
# Fit regression model:
score_model <- lm(score ~ bty_avg, 
                  data = evals_ch5)

# Get regression points:
regression_points <- get_regression_points(score_model)
regression_points
```

```
# A tibble: 463 x 5
      ID score bty_avg score_hat residual
   <int> <dbl>   <dbl>     <dbl>    <dbl>
 1     1   4.7    5         4.21    0.486
 2     2   4.1    5         4.21   -0.114
 3     3   3.9    5         4.21   -0.314
 4     4   4.8    5         4.21    0.586
 5     5   4.6    3         4.08    0.52 
 6     6   4.3    3         4.08    0.22 
 7     7   2.8    3         4.08   -1.28 
 8     8   4.1    3.33      4.10   -0.002
 9     9   3.4    3.33      4.10   -0.702
10    10   4.5    3.17      4.09    0.409
# ... with 453 more rows
```
…
* At the low end, one group removed 50 balls from the bowl with proportion red between 0.20 and 0.25.
* At the high end, another group removed 50 balls from the bowl with proportion between 0.45 and 0.5 red.
* However, the most frequently occurring proportions were between 0.30 and 0.35 red, right in the middle of the distribution.
* The shape of this distribution is somewhat bell-shaped. 

Let's construct this same hand-drawn histogram in R using your data visualization skills that you honed in Chapter \@ref(viz). We saved our 33 groups of friends' results in the `tactile_prop_red` data frame included in the `moderndive` package. Run the following to display the first 10 of 33 rows:


```r
tactile_prop_red
```

```
# A tibble: 33 x 4
   group            replicate red_balls prop_red
   <chr>                <int>     <int>    <dbl>
 1 Ilyas, Yohan             1        21     0.42
 2 Morgan, Terrance         2        17     0.34
 3 Martin, Thomas           3        21     0.42
 4 Clark, Frank             4        21     0.42
 5 Riddhi, Karina           5        18     0.36
 6 Andrew, Tyler            6        19     0.38
 7 Julia                    7        19     0.38
 8 Rachel, Lauren           8        11     0.22
 9 Daniel, Caroline         9        15     0.3 
10 Josh, Maeve             10        17     0.34
# ... with 23 more rows
```
…
In the previous Section \@ref(sampling-activity), we performed a *tactile* sampling activity by hand. In other words, we used a physical bowl of balls and a physical shovel. We performed this sampling activity by hand first so that we could develop a firm understanding of the root ideas behind sampling. In this section, we'll mimic this tactile sampling activity with a *virtual* sampling activity using a computer. In other words, we'll use a virtual analog to the bowl of balls and a virtual analog to the shovel. 


### Using the virtual shovel once

Let's start by performing the virtual analog of the tactile sampling exercise we performed in Section \@ref(sampling-activity). We first need a virtual analog of the bowl seen in Figure \@ref(fig:sampling-exercise-1). To this end, we included a data frame named `bowl` in the `moderndive` package. The rows of `bowl` correspond exactly with the contents of the actual bowl. 


```r
bowl
```

```
# A tibble: 2,400 x 2
   ball_ID color
     <int> <chr>
 1       1 white
 2       2 white
 3       3 white
 4       4 red  
 5       5 white
 6       6 white
 7       7 red  
 8       8 white
 9       9 red  
10      10 white
# ... with 2,390 more rows
```


Observe that `bowl` has 2400 rows, telling us that the bowl contains 2400 equally sized balls. The first variable `ball_ID` is used as an *identification variable* as discussed in Subsection \@ref(identification-vs-measurement-variables); none of the balls in the actual bowl are marked with numbers. The second variable `color` indicates whether a particular virtual ball is red or white. View the contents of the bowl in RStudio's data viewer and scroll through the contents to convince yourself that `bowl` is indeed a virtual analog of the actual bowl in Figure \@ref(fig:sampling-exercise-1).

Now that we have a virtual analog of our bowl, we now need a virtual analog to the shovel seen in Figure \@ref(fig:sampling-exercise-2) to generate virtual samples of 50 balls. We're going to use the `rep_sample_n()` function included in the `moderndive` package. This function allows us to take `rep`eated, or `rep`licated, `samples` of size `n`. 


```r
virtual_shovel <- bowl %>% 
  rep_sample_n(size = 50)
virtual_shovel
```

```
# A tibble: 50 x 3
# Groups:   replicate [1]
   replicate ball_ID color
       <int>   <int> <chr>
 1         1    1970 white
 2         1     842 red  
 3         1    2287 white
 4         1     599 white
 5         1     108 white
 6         1     846 red  
 7         1     390 red  
 8         1     344 white
 9         1     910 white
10         1    1485 white
# ... with 40 more rows
```

Observe that `virtual_shovel` has 50 rows corresponding to our virtual sample of size 50. The `ball_ID` variable identifies which of the 2400 balls from `bowl` are included in our sample of 50 balls while `color` denotes its color. However, what does the `replicate` variable indicate? In `virtual_shovel`'s case, `replicate` is equal to 1 for all 50 rows. This is telling us that these 50 rows correspond to the first repeated/replicated use of the shovel, in our case our first sample. We'll see shortly that when we "virtually" take 33 samples, `replicate` will take values between 1 and 33. 

Let's compute the proportion of balls in our virtual sample that are red using the `dplyr` data wrangling verbs you learned in Chapter \@ref(wrangling). First, for each of our 50 sampled balls, let's identify if it is red or not using a test for equality with `==`. Let's create a new Boolean variable `is_red` using the `mutate()` function from Section \@ref(mutate):


```r
virtual_shovel %>% 
  mutate(is_red = (color == "red"))
```

```
# A tibble: 50 x 4
# Groups:   replicate [1]
   replicate ball_ID color is_red
       <int>   <int> <chr> <lgl> 
 1         1    1970 white FALSE 
 2         1     842 red   TRUE  
 3         1    2287 white FALSE 
 4         1     599 white FALSE 
 5         1     108 white FALSE 
 6         1     846 red   TRUE  
 7         1     390 red   TRUE  
 8         1     344 white FALSE 
 9         1     910 white FALSE 
10         1    1485 white FALSE 
# ... with 40 more rows
```
…
